<?xml version="1.0" encoding="UTF-8" standalone="no"?>
<!-- Created with Inkscape (http://www.inkscape.org/) -->

<svg
   xmlns:dc="http://purl.org/dc/elements/1.1/"
   xmlns:cc="http://creativecommons.org/ns#"
   xmlns:rdf="http://www.w3.org/1999/02/22-rdf-syntax-ns#"
   xmlns:svg="http://www.w3.org/2000/svg"
   xmlns="http://www.w3.org/2000/svg"
   xmlns:sodipodi="http://sodipodi.sourceforge.net/DTD/sodipodi-0.dtd"
   xmlns:inkscape="http://www.inkscape.org/namespaces/inkscape"
   width="8.5019445mm"
   height="8.5019445mm"
   viewBox="0 0 8.5019443 8.5019443"
   version="1.1"
   id="svg8295"
   inkscape:version="0.92.4 (5da689c313, 2019-01-14)"
   sodipodi:docname="integrate-to-tic-intensity-check-button.svg">
  <defs
     id="defs8289">
    <marker
       inkscape:isstock="true"
       style="overflow:visible"
       id="Arrow1Send"
       refX="0"
       refY="0"
       orient="auto"
       inkscape:stockid="Arrow1Send">
      <path
         inkscape:connector-curvature="0"
         transform="matrix(-0.2,0,0,-0.2,-1.2,0)"
         style="fill:#f7fc00;fill-opacity:1;fill-rule:evenodd;stroke:#f7fc00;stroke-width:1.00000003pt;stroke-opacity:1"
         d="M 0,0 5,-5 -12.5,0 5,5 Z"
         id="path1940" />
    </marker>
    <marker
       inkscape:isstock="true"
       style="overflow:visible"
       id="marker5261"
       refX="0"
       refY="0"
       orient="auto"
       inkscape:stockid="Arrow1Mend">
      <path
         inkscape:connector-curvature="0"
         transform="matrix(-0.4,0,0,-0.4,-4,0)"
         style="fill:#f7fc00;fill-opacity:1;fill-rule:evenodd;stroke:#f7fc00;stroke-width:1.00000003pt;stroke-opacity:1"
         d="M 0,0 5,-5 -12.5,0 5,5 Z"
         id="path5259" />
    </marker>
    <marker
       inkscape:isstock="true"
       style="overflow:visible"
       id="marker5261-3"
       refX="0"
       refY="0"
       orient="auto"
       inkscape:stockid="Arrow1Mend">
      <path
         inkscape:connector-curvature="0"
         transform="matrix(-0.4,0,0,-0.4,-4,0)"
         style="fill:#f7fc00;fill-opacity:1;fill-rule:evenodd;stroke:#f7fc00;stroke-width:1.00000003pt;stroke-opacity:1"
         d="M 0,0 5,-5 -12.5,0 5,5 Z"
         id="path5259-6" />
    </marker>
    <marker
       inkscape:isstock="true"
       style="overflow:visible"
       id="marker6076"
       refX="0"
       refY="0"
       orient="auto"
       inkscape:stockid="Arrow1Mend">
      <path
         inkscape:connector-curvature="0"
         transform="matrix(-0.4,0,0,-0.4,-4,0)"
         style="fill:#f7fc00;fill-opacity:1;fill-rule:evenodd;stroke:#f7fc00;stroke-width:1.00000003pt;stroke-opacity:1"
         d="M 0,0 5,-5 -12.5,0 5,5 Z"
         id="path6074" />
    </marker>
    <marker
       inkscape:stockid="Arrow1Mend"
       orient="auto"
       refY="0"
       refX="0"
       id="marker1079"
       style="overflow:visible"
       inkscape:isstock="true">
      <path
         id="path1077"
         d="M 0,0 5,-5 -12.5,0 5,5 Z"
         style="fill:#f7fc00;fill-opacity:1;fill-rule:evenodd;stroke:#f7fc00;stroke-width:1.00000003pt;stroke-opacity:1"
         transform="matrix(-0.4,0,0,-0.4,-4,0)"
         inkscape:connector-curvature="0" />
    </marker>
  </defs>
  <sodipodi:namedview
     id="base"
     pagecolor="#ffffff"
     bordercolor="#666666"
     borderopacity="1.0"
     inkscape:pageopacity="0.0"
     inkscape:pageshadow="2"
     inkscape:zoom="2.8982456"
     inkscape:cx="1.8775859"
     inkscape:cy="33.065418"
     inkscape:document-units="mm"
     inkscape:current-layer="layer1"
     showgrid="false"
     fit-margin-top="0"
     fit-margin-left="0"
     fit-margin-right="0"
     fit-margin-bottom="0" />
  <metadata
     id="metadata8292">
    <rdf:RDF>
      <cc:Work
         rdf:about="">
        <dc:format>image/svg+xml</dc:format>
        <dc:type
           rdf:resource="http://purl.org/dc/dcmitype/StillImage" />
        <dc:title></dc:title>
      </cc:Work>
    </rdf:RDF>
  </metadata>
  <g
     inkscape:label="Layer 1"
     inkscape:groupmode="layer"
     id="layer1"
     transform="translate(-102.2067,-122.0788)">
    <g
       id="g1163"
       inkscape:export-xdpi="95.601578"
       inkscape:export-ydpi="95.601578"
       transform="matrix(0.26458333,0,0,0.26458333,13.363142,77.024829)">
      <rect
         style="opacity:1;fill:#000000;fill-opacity:1;fill-rule:nonzero;stroke:#ffce00;stroke-width:0.13333333;stroke-linecap:round;stroke-linejoin:round;stroke-miterlimit:4;stroke-dasharray:none;stroke-dashoffset:0;stroke-opacity:1;paint-order:markers stroke fill"
         id="rect1063"
         width="32"
         height="32"
         x="335.85333"
         y="170.3494"
         inkscape:export-xdpi="95.601578"
         inkscape:export-ydpi="95.601578" />
      <text
         transform="scale(0.93251546,1.0723683)"
         xml:space="preserve"
         style="font-style:normal;font-weight:normal;font-size:20.26325417px;line-height:12.66453457px;font-family:'Bitstream Vera Sans';letter-spacing:0px;word-spacing:0px;fill:#faff00;fill-opacity:0.98660715;stroke:#f7fc00;stroke-width:0.50658137px;stroke-linecap:butt;stroke-linejoin:miter;stroke-opacity:1"
         x="359.70435"
         y="187.1696"
         id="text1067"
         inkscape:export-xdpi="95.601578"
         inkscape:export-ydpi="95.601578"><tspan
           sodipodi:role="line"
           id="tspan1065"
           x="359.70435"
           y="187.1696"
           style="fill:#faff00;fill-opacity:0.98660715;stroke:#f7fc00;stroke-width:0.50658137px;stroke-opacity:1">INT</tspan></text>
      <path
         style="fill:#f7fc00;fill-opacity:1;fill-rule:evenodd;stroke:#f7fc00;stroke-width:2;stroke-linecap:butt;stroke-linejoin:miter;stroke-miterlimit:4;stroke-dasharray:none;stroke-opacity:1;marker-end:url(#marker1079)"
         d="m 336.75231,177.58697 h 26.29257"
         id="path1069"
         inkscape:connector-curvature="0"
         inkscape:export-xdpi="95.601578"
         inkscape:export-ydpi="95.601578" />
    </g>
  </g>
</svg>
