<?xml version="1.0" encoding="UTF-8" standalone="no"?>
<svg
   xmlns:dc="http://purl.org/dc/elements/1.1/"
   xmlns:cc="http://creativecommons.org/ns#"
   xmlns:rdf="http://www.w3.org/1999/02/22-rdf-syntax-ns#"
   xmlns:svg="http://www.w3.org/2000/svg"
   xmlns="http://www.w3.org/2000/svg"
   xmlns:sodipodi="http://sodipodi.sourceforge.net/DTD/sodipodi-0.dtd"
   xmlns:inkscape="http://www.inkscape.org/namespaces/inkscape"
   width="75.320129mm"
   height="92.604164mm"
   viewBox="0 0 75.320129 92.604164"
   version="1.1"
   id="svg8"
   inkscape:version="1.0 (4035a4fb49, 2020-05-01)"
   sodipodi:docname="pdf-file-icon.svg">
  <title
     id="title2682">PDF file icon</title>
  <defs
     id="defs2">
    <clipPath
       clipPathUnits="userSpaceOnUse"
       id="clipPath839">
      <rect
         style="opacity:1;fill:#000000;fill-opacity:1;fill-rule:nonzero;stroke:none;stroke-width:1;stroke-linecap:butt;stroke-linejoin:round;stroke-miterlimit:4;stroke-dasharray:none;stroke-dashoffset:0;stroke-opacity:1;paint-order:fill markers stroke"
         id="rect841"
         width="68.688263"
         height="67.886459"
         x="-74.033661"
         y="141.44913" />
    </clipPath>
  </defs>
  <sodipodi:namedview
     id="base"
     pagecolor="#ffffff"
     bordercolor="#666666"
     borderopacity="1.0"
     inkscape:pageopacity="0.0"
     inkscape:pageshadow="2"
     inkscape:zoom="0.98994949"
     inkscape:cx="122.12727"
     inkscape:cy="167.02823"
     inkscape:document-units="mm"
     inkscape:current-layer="g899"
     showgrid="false"
     inkscape:object-nodes="false"
     inkscape:window-width="1366"
     inkscape:window-height="705"
     inkscape:window-x="-8"
     inkscape:window-y="-8"
     inkscape:window-maximized="1"
     inkscape:snap-page="false"
     inkscape:snap-others="false"
     fit-margin-top="0"
     fit-margin-left="0"
     fit-margin-right="0"
     fit-margin-bottom="0"
     inkscape:document-rotation="0" />
  <metadata
     id="metadata5">
    <rdf:RDF>
      <cc:Work
         rdf:about="">
        <dc:format>image/svg+xml</dc:format>
        <dc:type
           rdf:resource="http://purl.org/dc/dcmitype/StillImage" />
        <dc:title>PDF file icon</dc:title>
        <dc:date>08/10/2018</dc:date>
        <dc:creator>
          <cc:Agent>
            <dc:title>Adobe Systems</dc:title>
          </cc:Agent>
        </dc:creator>
        <dc:publisher>
          <cc:Agent>
            <dc:title>CMetalCore</dc:title>
          </cc:Agent>
        </dc:publisher>
        <dc:description>Fuente del texto &quot;PDF&quot;:
Franklin Gothic Medium Cond</dc:description>
        <cc:license
           rdf:resource="http://creativecommons.org/licenses/by-sa/4.0/" />
      </cc:Work>
      <cc:License
         rdf:about="http://creativecommons.org/licenses/by-sa/4.0/">
        <cc:permits
           rdf:resource="http://creativecommons.org/ns#Reproduction" />
        <cc:permits
           rdf:resource="http://creativecommons.org/ns#Distribution" />
        <cc:requires
           rdf:resource="http://creativecommons.org/ns#Notice" />
        <cc:requires
           rdf:resource="http://creativecommons.org/ns#Attribution" />
        <cc:permits
           rdf:resource="http://creativecommons.org/ns#DerivativeWorks" />
        <cc:requires
           rdf:resource="http://creativecommons.org/ns#ShareAlike" />
      </cc:License>
    </rdf:RDF>
  </metadata>
  <g
     inkscape:label="Capa 1"
     inkscape:groupmode="layer"
     id="layer1"
     transform="translate(36.076172,-93.731774)">
    <g
       id="g899"
       transform="matrix(1.4843054,0,0,1.4843054,17.471885,-90.243502)">
      <g
         inkscape:export-ydpi="8.767909"
         inkscape:export-xdpi="8.767909"
         inkscape:export-filename="/home/rusconi/devel/minexpert2/development/images/icons/32x32/pdf-file-icon-32x32.png"
         id="g876">
        <path
           inkscape:connector-curvature="0"
           style="color:#000000;font-style:normal;font-variant:normal;font-weight:normal;font-stretch:normal;font-size:medium;line-height:normal;font-family:sans-serif;font-variant-ligatures:normal;font-variant-position:normal;font-variant-caps:normal;font-variant-numeric:normal;font-variant-alternates:normal;font-feature-settings:normal;text-indent:0;text-align:start;text-decoration:none;text-decoration-line:none;text-decoration-style:solid;text-decoration-color:#000000;letter-spacing:normal;word-spacing:normal;text-transform:none;writing-mode:lr-tb;direction:ltr;text-orientation:mixed;dominant-baseline:auto;baseline-shift:baseline;text-anchor:start;white-space:normal;shape-padding:0;clip-rule:nonzero;display:inline;overflow:visible;visibility:visible;opacity:1;isolation:auto;mix-blend-mode:normal;color-interpolation:sRGB;color-interpolation-filters:linearRGB;solid-color:#000000;solid-opacity:1;vector-effect:none;fill:#ff2116;fill-opacity:1;fill-rule:nonzero;stroke:none;stroke-width:2.11666656;stroke-linecap:round;stroke-linejoin:round;stroke-miterlimit:4;stroke-dasharray:none;stroke-dashoffset:0;stroke-opacity:1;paint-order:markers fill stroke;color-rendering:auto;image-rendering:auto;shape-rendering:auto;text-rendering:auto;enable-background:accumulate"
           d="m -29.632812,123.94727 c -3.551967,0 -6.44336,2.89347 -6.44336,6.44531 v 49.49804 c 0,3.55185 2.891393,6.44532 6.44336,6.44532 H 8.2167969 c 3.5519661,0 6.4433591,-2.89335 6.4433591,-6.44532 v -40.70117 c 0,0 0.101353,-1.19181 -0.416015,-2.35156 -0.484969,-1.08711 -1.275391,-1.84375 -1.275391,-1.84375 a 1.0584391,1.0584391 0 0 0 -0.0059,-0.008 L 3.5722246,125.7752 a 1.0584391,1.0584391 0 0 0 -0.015625,-0.0156 c 0,0 -0.8017392,-0.76344 -1.9902344,-1.27344 -1.39939552,-0.6005 -2.8417968,-0.53711 -2.8417968,-0.53711 l 0.021484,-0.002 z"
           id="path890" />
        <path
           inkscape:connector-curvature="0"
           style="color:#000000;font-style:normal;font-variant:normal;font-weight:normal;font-stretch:normal;font-size:medium;line-height:normal;font-family:sans-serif;font-variant-ligatures:normal;font-variant-position:normal;font-variant-caps:normal;font-variant-numeric:normal;font-variant-alternates:normal;font-feature-settings:normal;text-indent:0;text-align:start;text-decoration:none;text-decoration-line:none;text-decoration-style:solid;text-decoration-color:#000000;letter-spacing:normal;word-spacing:normal;text-transform:none;writing-mode:lr-tb;direction:ltr;text-orientation:mixed;dominant-baseline:auto;baseline-shift:baseline;text-anchor:start;white-space:normal;shape-padding:0;clip-rule:nonzero;display:inline;overflow:visible;visibility:visible;opacity:1;isolation:auto;mix-blend-mode:normal;color-interpolation:sRGB;color-interpolation-filters:linearRGB;solid-color:#000000;solid-opacity:1;vector-effect:none;fill:#f5f5f5;fill-opacity:1;fill-rule:nonzero;stroke:none;stroke-width:2.2006;stroke-linecap:round;stroke-linejoin:round;stroke-miterlimit:4;stroke-dasharray:none;stroke-dashoffset:0;stroke-opacity:1;paint-order:markers fill stroke;color-rendering:auto;image-rendering:auto;shape-rendering:auto;text-rendering:auto;enable-background:accumulate"
           d="m -30.383295,124.91142 h 29.50424317 a 1.1004105,1.1004105 0 0 0 0.0223359,0 c 0,0 1.17980405,0.0114 2.04275773,0.38175 0.8305773,0.35642 1.4195123,0.89594 1.4234326,0.89955 1.3e-5,1e-5 0.00407,0.004 0.00407,0.004 l 9.7386336,9.55385 c 0,0 0.586733,0.61945 0.871117,1.25693 0.229533,0.51454 0.243669,1.45592 0.243669,1.45592 a 1.1004105,1.1004105 0 0 0 -0.0021,0.0467 v 42.36184 c 0,2.51172 -1.986007,4.49976 -4.4977216,4.49976 H -30.383295 c -2.511715,0 -4.497723,-1.98791 -4.497723,-4.49976 v -51.46084 c 0,-2.51183 1.986008,-4.49975 4.497723,-4.49975 z"
           id="rect2684" />
        <path
           sodipodi:nodetypes="scccscccscccccssscacccsccccccccccccccccccccaccccccccc"
           inkscape:connector-curvature="0"
           d="m -32.986052,172.56053 c -2.555344,-2.55534 0.209348,-6.06675 7.712361,-9.79547 l 4.721007,-2.34613 1.839205,-4.02415 c 1.011566,-2.21327 2.521312,-5.82462 3.355002,-8.02517 l 1.515815,-4.00105 -1.044564,-2.96098 c -1.284382,-3.64082 -1.742389,-9.11205 -0.927487,-11.0794 1.103803,-2.66481 4.719341,-2.3914 6.1507257,0.46513 1.1179072,2.23094 1.0036202,6.2711 -0.3215296,11.36635 l -1.0863841,4.17722 0.956923,1.62447 c 0.5263166,0.89345 2.063656,3.01491 3.4163294,4.71432 l 2.5422753,3.16236 3.16349943,-0.41282 C 9.0570177,154.11379 12.49921,156.34266 12.49921,159.53842 c 0,4.0333 -7.8913111,4.36621 -14.5180164,-0.2881 -1.4910222,-1.04723 -2.5149455,-2.08753 -2.5149455,-2.08753 0,0 -4.1514015,0.84515 -6.1953601,1.39606 -2.109804,0.56866 -3.162389,0.9248 -6.252907,1.96798 0,0 -1.084349,1.5747 -1.790946,2.71948 -2.628828,4.25906 -5.698262,7.78867 -7.890326,9.07332 -2.454319,1.43833 -5.027293,1.53637 -6.322761,0.2409 z m 4.010218,-1.43263 c 1.436402,-0.88775 4.343711,-4.32632 6.356232,-7.51773 l 0.814814,-1.29212 -3.710107,1.86542 c -5.730224,2.8811 -8.351684,5.59651 -6.988538,7.239 0.765766,0.92268 1.681834,0.84618 3.527599,-0.29457 z M 8.2452088,160.6802 c 1.4049314,-0.98406 1.2009866,-2.96711 -0.3873653,-3.76665 -1.2361235,-0.62223 -2.232424,-0.75008 -5.4435981,-0.70268 -1.97331387,0.13455 -5.1464473,0.53223 -5.6842363,0.65321 0,0 1.7431892,1.20476 2.5171128,1.6476 1.03026666,0.58843 3.5338897,1.68072 5.3617794,2.24023 1.8030675,0.55189 2.8460347,0.49371 3.6363075,-0.0717 z M -6.720892,154.45987 c -0.8502669,-0.89381 -2.2960714,-2.75931 -3.2128756,-4.14556 -1.1990574,-1.57253 -1.8003314,-2.68196 -1.8003314,-2.68196 0,0 -0.876404,2.81891 -1.595421,4.51523 l -2.243217,5.54465 -0.650374,1.25768 c 0,0 3.457628,-1.13369 5.216835,-1.59321 1.8632668,-0.48669 5.6448287,-1.2303 5.6448287,-1.2303 z m -4.822997,-19.34148 c 0.216873,-1.82 0.308917,-3.63729 -0.275833,-4.55371 -1.621945,-1.7731 -3.579594,-0.29448 -3.247995,3.92096 0.111568,1.41811 0.463867,3.84231 0.934855,5.33648 l 0.856354,2.71662 0.602713,-2.04607 c 0.331493,-1.12535 0.839952,-3.54378 1.129906,-5.37428 z"
           style="fill:#ff2116;fill-opacity:1;stroke-width:0.464135"
           id="path2697" />
        <g
           id="g858">
          <path
             inkscape:connector-curvature="0"
             id="path845"
             style="font-style:normal;font-variant:normal;font-weight:normal;font-stretch:normal;font-size:medium;line-height:125%;font-family:'Franklin Gothic Medium Cond';-inkscape-font-specification:'Franklin Gothic Medium Cond';letter-spacing:0px;word-spacing:4.26px;fill:#2c2c2c;fill-opacity:1;stroke:none;stroke-width:0.581628px;stroke-linecap:butt;stroke-linejoin:miter;stroke-opacity:1"
             d="m -21.581024,167.77237 h 3.839651 q 1.840306,0 2.98766,0.35215 1.147353,0.34079 1.931183,1.53359 0.783838,1.18144 0.783838,2.85135 0,1.53358 -0.636156,2.63549 -0.636156,1.10191 -1.715348,1.59039 -1.067835,0.48847 -3.294374,0.48847 h -1.329113 v 6.05485 h -2.567341 z m 2.567341,1.98798 v 5.40733 h 1.27231 q 1.70399,0 2.351503,-0.63617 0.658875,-0.63615 0.658875,-2.0675 0,-1.06783 -0.431678,-1.72671 -0.431674,-0.67023 -0.954231,-0.81791 -0.511198,-0.15911 -1.624469,-0.15911 z" />
          <path
             inkscape:connector-curvature="0"
             id="path847"
             style="font-style:normal;font-variant:normal;font-weight:normal;font-stretch:normal;font-size:medium;line-height:125%;font-family:'Franklin Gothic Medium Cond';-inkscape-font-specification:'Franklin Gothic Medium Cond';letter-spacing:0px;word-spacing:4.26px;fill:#2c2c2c;fill-opacity:1;stroke:none;stroke-width:0.581628px;stroke-linecap:butt;stroke-linejoin:miter;stroke-opacity:1"
             d="m -10.073431,167.77237 h 3.4874977 q 2.5332638,0 4.0441286,0.89743 1.5222303,0.89743 2.29470764,2.66959 0.7838307,1.77214 0.7838307,3.93052 0,2.27199 -0.7043163,4.05549 -0.6929513,1.77215 -2.13566164,2.86269 -1.4313511,1.09057 -4.08957,1.09057 h -3.6806167 z m 2.5673467,2.05613 v 11.39401 h 1.067827 q 2.2379057,0 3.2489379,-1.54496 1.011032,-1.55629 1.011032,-4.14636 0,-5.70269 -4.2599699,-5.70269 z" />
          <path
             inkscape:connector-curvature="0"
             id="path849"
             style="font-style:normal;font-variant:normal;font-weight:normal;font-stretch:normal;font-size:medium;line-height:125%;font-family:'Franklin Gothic Medium Cond';-inkscape-font-specification:'Franklin Gothic Medium Cond';letter-spacing:0px;word-spacing:4.26px;fill:#2c2c2c;fill-opacity:1;stroke:none;stroke-width:0.581628px;stroke-linecap:butt;stroke-linejoin:miter;stroke-opacity:1"
             d="m 3.0018351,167.77237 h 8.6108189 v 2.05613 H 5.5691808 v 4.63485 h 4.8393232 v 2.05615 H 5.5691808 v 6.75916 H 3.0018351 Z" />
        </g>
      </g>
    </g>
  </g>
</svg>
